RV32I_SCDP/puraana/RV32I-Pipelined-Processor-main/RV32I_SCDP/scdp/scdp.sim/sim_1/behav/xsim/simulate.log
Vivado Simulator 2018.2
Time resolution is 1 ps

========== Instruction Memory Test ==========

PC=0 | Got=000000b7 | Expected=000000b7
PASS
PC=4 | Got=00000117 | Expected=00000117
PASS
PC=8 | Got=00500193 | Expected=00500193
PASS
PC=12 | Got=00a00213 | Expected=00a00213
PASS
PC=16 | Got=0091b293 | Expected=0091b293
PASS
PC=20 | Got=00324313 | Expected=00324313
PASS
PC=24 | Got=005183b3 | Expected=005183b3
PASS
PC=28 | Got=00627433 | Expected=00627433
PASS
PC=32 | Got=0051e4b3 | Expected=0051e4b3
PASS
PC=36 | Got=0041c533 | Expected=0041c533
PASS
PC=40 | Got=00702023 | Expected=00702023
PASS
PC=44 | Got=00800223 | Expected=00800223
PASS
PC=48 | Got=00901423 | Expected=00901423
PASS
PC=52 | Got=00002583 | Expected=00002583
PASS
PC=56 | Got=00404603 | Expected=00404603
PASS
PC=60 | Got=00805683 | Expected=00805683
PASS
PC=64 | Got=00358463 | Expected=00358463
PASS
PC=68 | Got=00359263 | Expected=00359263
PASS
PC=72 | Got=0041c263 | Expected=0041c263
PASS
PC=76 | Got=00325263 | Expected=00325263
PASS
PC=80 | Got=0041e263 | Expected=0041e263
PASS
PC=84 | Got=00327263 | Expected=00327263
PASS
PC=88 | Got=0080076f | Expected=0080076f
PASS
PC=92 | Got=00900793 | Expected=00900793
PASS
PC=96 | Got=00170813 | Expected=00170813
PASS
PC=100 | Got=00080067 | Expected=00080067
PASS
PC=104 | Got=0000006f | Expected=0000006f
PASS

All tests completed.

